; ModuleID = 'probe0.a45255b7-cgu.0'
source_filename = "probe0.a45255b7-cgu.0"
target datalayout = "e-m:o-i64:64-i128:128-n32:64-S128"
target triple = "arm64-apple-macosx11.0.0"

!llvm.module.flags = !{!0}

!0 = !{i32 7, !"PIC Level", i32 2}
