; ModuleID = 'probe0.a45255b7-cgu.0'
source_filename = "probe0.a45255b7-cgu.0"
target datalayout = "e-m:o-p270:32:32-p271:32:32-p272:64:64-i64:64-f80:128-n8:16:32:64-S128"
target triple = "x86_64-apple-macosx10.7.0"

!llvm.module.flags = !{!0}

!0 = !{i32 7, !"PIC Level", i32 2}
